%YAML 1.1
%TAG !u! tag:unity3d.com,2011:
--- !u!114 &11400000
MonoBehaviour:
  m_ObjectHideFlags: 0
  m_CorrespondingSourceObject: {fileID: 0}
  m_PrefabInstance: {fileID: 0}
  m_PrefabAsset: {fileID: 0}
  m_GameObject: {fileID: 0}
  m_Enabled: 1
  m_EditorHideFlags: 0
  m_Script: {fileID: 11500000, guid: 5be51871efa6c3e4eae1703925c8f5ac, type: 3}
  m_Name: Tooltips
  m_EditorClassIdentifier: 
  m_SharedTableData: {fileID: 11400000, guid: 9a15acfb8817082c99d45b0c882cdc16, type: 2}
  m_Tables:
  - {fileID: 11400000, guid: 415002f85855861419ffadec34e5c2d2, type: 2}
  m_Extensions: []
  m_Group: String Table
  references:
    version: 1
