%YAML 1.1
%TAG !u! tag:unity3d.com,2011:
--- !u!1045 &1
EditorBuildSettings:
  m_ObjectHideFlags: 0
  serializedVersion: 2
  m_Scenes:
  - enabled: 1
    path: Assets/Scenes/Main.unity
    guid: 2f6c7958461b98f41a2689450e433228
  m_configObjects:
    Unity.XR.Oculus.Settings: {fileID: 11400000, guid: 733c2d3a87f17a8419e6cf5fba94e91f, type: 2}
    com.unity.addressableassets: {fileID: 11400000, guid: cafe96d95ab3d95e4a01dc7066c502d1, type: 2}
    com.unity.input.settings: {fileID: 11400000, guid: 91ab2f1fa4431b9478ffaf38c5ddd721, type: 2}
    com.unity.localization.settings: {fileID: 11400000, guid: c7ebe3ad6cdbd18ffbbac37ee568f16f, type: 2}
    com.unity.xr.management.loader_settings: {fileID: 11400000, guid: 1fef13176859ad143a283d826d44e0dc, type: 2}
    com.unity.xr.openxr.settings4: {fileID: 11400000, guid: 940391b68cc4f3c4396eed32b02ca063, type: 2}
