{
    "name": "XRI Default Input Actions",
    "maps": [
        {
            "name": "XRI HMD",
            "id": "09ff3ccc-21b4-4346-a3a2-7c978b5af892",
            "actions": [
                {
                    "name": "Position",
                    "type": "Value",
                    "id": "1a9029f8-7a46-46b9-9eff-e9ae8365f611",
                    "expectedControlType": "Vector3",
                    "processors": "",
                    "interactions": "",
                    "initialStateCheck": true
                },
                {
                    "name": "Rotation",
                    "type": "Value",
                    "id": "aed87fe6-2b01-4dd2-a8fa-195578fd8158",
                    "expectedControlType": "Quaternion",
                    "processors": "",
                    "interactions": "",
                    "initialStateCheck": true
                }
            ],
            "bindings": [
                {
                    "name": "",
                    "id": "cff1f981-6e1f-4e2c-a90c-715a0ea2e80e",
                    "path": "<XRHMD>/centerEyePosition",
                    "interactions": "",
                    "processors": "",
                    "groups": "Generic XR Controller",
                    "action": "Position",
                    "isComposite": false,
                    "isPartOfComposite": false
                },
                {
                    "name": "",
                    "id": "e2017383-a3f6-4c46-acb1-012b8eece9cc",
                    "path": "<XRHMD>/centerEyeRotation",
                    "interactions": "",
                    "processors": "",
                    "groups": "Generic XR Controller",
                    "action": "Rotation",
                    "isComposite": false,
                    "isPartOfComposite": false
                }
            ]
        },
        {
            "name": "XRI LeftHand",
            "id": "5fe596f9-1b7b-49b7-80a7-3b5195caf74d",
            "actions": [
                {
                    "name": "Position",
                    "type": "Value",
                    "id": "83a7af0b-87e3-42c3-a909-95fbf8091e4f",
                    "expectedControlType": "Vector3",
                    "processors": "",
                    "interactions": "",
                    "initialStateCheck": true
                },
                {
                    "name": "Rotation",
                    "type": "Value",
                    "id": "cb6b7130-2bac-4ef7-abe4-6991ae7d419d",
                    "expectedControlType": "Quaternion",
                    "processors": "",
                    "interactions": "",
                    "initialStateCheck": true
                },
                {
                    "name": "Select",
                    "type": "Button",
                    "id": "33754c03-48ec-46ef-9bc6-22ed6bfdd8e8",
                    "expectedControlType": "Button",
                    "processors": "",
                    "interactions": "",
                    "initialStateCheck": false
                },
                {
                    "name": "Activate",
                    "type": "Button",
                    "id": "0c0991c5-d329-4afc-8892-1076b440477c",
                    "expectedControlType": "Button",
                    "processors": "",
                    "interactions": "",
                    "initialStateCheck": false
                },
                {
                    "name": "UI Press",
                    "type": "Button",
                    "id": "7e1eced7-c774-4fe5-be8f-d8711f646d9e",
                    "expectedControlType": "Button",
                    "processors": "",
                    "interactions": "",
                    "initialStateCheck": false
                },
                {
                    "name": "Haptic Device",
                    "type": "PassThrough",
                    "id": "664a62b0-e178-421d-b3f8-014eec01591d",
                    "expectedControlType": "",
                    "processors": "",
                    "interactions": "",
                    "initialStateCheck": false
                },
                {
                    "name": "Teleport Select",
                    "type": "Button",
                    "id": "cbeaf823-3b69-4004-8ec8-13ea2ca3fc31",
                    "expectedControlType": "Button",
                    "processors": "",
                    "interactions": "",
                    "initialStateCheck": false
                },
                {
                    "name": "Teleport Mode Activate",
                    "type": "Button",
                    "id": "a21db72c-4843-4839-b4d0-3ce8d287cb86",
                    "expectedControlType": "Button",
                    "processors": "",
                    "interactions": "",
                    "initialStateCheck": false
                },
                {
                    "name": "Teleport Mode Cancel",
                    "type": "Button",
                    "id": "89ce8348-6001-41a3-85b9-f8f2e2dcad7c",
                    "expectedControlType": "Button",
                    "processors": "",
                    "interactions": "",
                    "initialStateCheck": false
                },
                {
                    "name": "Turn",
                    "type": "Value",
                    "id": "9164e093-ebd4-4923-af32-1b52f31c2d66",
                    "expectedControlType": "Vector2",
                    "processors": "",
                    "interactions": "",
                    "initialStateCheck": true
                },
                {
                    "name": "Move",
                    "type": "Value",
                    "id": "9693e25f-8a4f-4aed-842f-3961243c69a1",
                    "expectedControlType": "Vector2",
                    "processors": "",
                    "interactions": "",
                    "initialStateCheck": true
                },
                {
                    "name": "Rotate Anchor",
                    "type": "Value",
                    "id": "21b75b25-12ad-410f-b4f8-a7745b7aca27",
                    "expectedControlType": "Vector2",
                    "processors": "",
                    "interactions": "",
                    "initialStateCheck": true
                },
                {
                    "name": "Translate Anchor",
                    "type": "Value",
                    "id": "bfa204c7-3c92-4193-bad1-39eb71920042",
                    "expectedControlType": "Vector2",
                    "processors": "",
                    "interactions": "",
                    "initialStateCheck": true
                }
            ],
            "bindings": [
                {
                    "name": "",
                    "id": "b34c79c1-ab5e-4851-87ac-abc43705eae0",
                    "path": "<XRController>{LeftHand}/triggerPressed",
                    "interactions": "",
                    "processors": "",
                    "groups": "Generic XR Controller",
                    "action": "UI Press",
                    "isComposite": false,
                    "isPartOfComposite": false
                },
                {
                    "name": "",
                    "id": "79634234-07c9-488b-98bd-7d83eb6895c5",
                    "path": "<XRController>{LeftHand}/deviceRotation",
                    "interactions": "",
                    "processors": "",
                    "groups": "Generic XR Controller",
                    "action": "Rotation",
                    "isComposite": false,
                    "isPartOfComposite": false
                },
                {
                    "name": "",
                    "id": "8da6ed3a-f621-49fe-8c76-1f6b7d7754d6",
                    "path": "<XRController>{LeftHand}/Primary2DAxis",
                    "interactions": "Sector(directions=1)",
                    "processors": "",
                    "groups": "Noncontinuous Move",
                    "action": "Teleport Mode Activate",
                    "isComposite": false,
                    "isPartOfComposite": false
                },
                {
                    "name": "",
                    "id": "b8edee81-6779-4aa8-89cd-29b149a8f55e",
                    "path": "<XRController>{LeftHand}/primaryButton",
                    "interactions": "",
                    "processors": "",
                    "groups": "Generic XR Controller",
                    "action": "Teleport Mode Activate",
                    "isComposite": false,
                    "isPartOfComposite": false
                },
                {
                    "name": "",
                    "id": "b8aebee7-fa03-43d4-bfb7-77a3f87452cc",
                    "path": "<XRController>{LeftHand}/gripPressed",
                    "interactions": "",
                    "processors": "",
                    "groups": "Generic XR Controller",
                    "action": "Teleport Mode Cancel",
                    "isComposite": false,
                    "isPartOfComposite": false
                },
                {
                    "name": "",
                    "id": "95fa1419-ca7b-4c8a-8d15-7d46e58d82e3",
                    "path": "<XRController>{LeftHand}/Primary2DAxis",
                    "interactions": "Sector(directions=-1,sweepBehavior=3)",
                    "processors": "",
                    "groups": "Noncontinuous Move",
                    "action": "Teleport Select",
                    "isComposite": false,
                    "isPartOfComposite": false
                },
                {
                    "name": "",
                    "id": "14a27f53-867e-4d15-92d9-3e36deb55b1b",
                    "path": "<XRController>{LeftHand}/primaryButton",
                    "interactions": "",
                    "processors": "",
                    "groups": "Generic XR Controller",
                    "action": "Teleport Select",
                    "isComposite": false,
                    "isPartOfComposite": false
                },
                {
                    "name": "",
                    "id": "3bf4fccb-bf42-4ec5-b215-c967f1d71642",
                    "path": "<XRController>{LeftHand}/devicePosition",
                    "interactions": "",
                    "processors": "",
                    "groups": "Generic XR Controller",
                    "action": "Position",
                    "isComposite": false,
                    "isPartOfComposite": false
                },
                {
                    "name": "",
                    "id": "71a4d23f-3e9a-4513-923b-ba388c5e84bf",
                    "path": "<XRController>{LeftHand}/gripPressed",
                    "interactions": "",
                    "processors": "",
                    "groups": "Generic XR Controller",
                    "action": "Select",
                    "isComposite": false,
                    "isPartOfComposite": false
                },
                {
                    "name": "",
                    "id": "487f4f2e-9e9b-49aa-b0f2-4037a24624f5",
                    "path": "<XRController>{LeftHand}/triggerPressed",
                    "interactions": "",
                    "processors": "",
                    "groups": "Generic XR Controller",
                    "action": "Activate",
                    "isComposite": false,
                    "isPartOfComposite": false
                },
                {
                    "name": "",
                    "id": "99cb7ad1-51ec-4611-af68-92a85f2c17d6",
                    "path": "<XRController>{LeftHand}/Primary2DAxis",
                    "interactions": "Sector(directions=12,sweepBehavior=1)",
                    "processors": "",
                    "groups": "Noncontinuous Move",
                    "action": "Turn",
                    "isComposite": false,
                    "isPartOfComposite": false
                },
                {
                    "name": "",
                    "id": "034c3ced-8f2c-44ce-892e-678ca433265b",
                    "path": "<XRController>{LeftHand}/Primary2DAxis",
                    "interactions": "Sector(directions=2,sweepBehavior=2)",
                    "processors": "",
                    "groups": "Noncontinuous Move",
                    "action": "Turn",
                    "isComposite": false,
                    "isPartOfComposite": false
                },
                {
                    "name": "",
                    "id": "8e383b1a-270f-4c20-819b-89a59cffb498",
                    "path": "<XRController>{LeftHand}/Primary2DAxis",
                    "interactions": "",
                    "processors": "StickDeadzone",
                    "groups": "Continuous Move",
                    "action": "Move",
                    "isComposite": false,
                    "isPartOfComposite": false
                },
                {
                    "name": "",
                    "id": "acdf9550-5529-4ff7-8558-73ecdf0d75bd",
                    "path": "<XRController>{LeftHand}/*",
                    "interactions": "",
                    "processors": "",
                    "groups": "Generic XR Controller",
                    "action": "Haptic Device",
                    "isComposite": false,
                    "isPartOfComposite": false
                },
                {
                    "name": "2D Vector",
                    "id": "de8136fd-5b07-4794-bb96-63c6027cf1b6",
                    "path": "2DVector(mode=2)",
                    "interactions": "",
                    "processors": "StickDeadzone",
                    "groups": "",
                    "action": "Rotate Anchor",
                    "isComposite": true,
                    "isPartOfComposite": false
                },
                {
                    "name": "up",
                    "id": "529c0dda-d254-4a71-8aa8-7dbdeabbe45d",
                    "path": "",
                    "interactions": "",
                    "processors": "",
                    "groups": "Generic XR Controller",
                    "action": "Rotate Anchor",
                    "isComposite": false,
                    "isPartOfComposite": true
                },
                {
                    "name": "down",
                    "id": "dad37c56-3fcd-4890-98bf-e06f80ba76ff",
                    "path": "",
                    "interactions": "",
                    "processors": "",
                    "groups": "Generic XR Controller",
                    "action": "Rotate Anchor",
                    "isComposite": false,
                    "isPartOfComposite": true
                },
                {
                    "name": "left",
                    "id": "e0dd3431-14bb-4817-ac71-ed700d5af1ca",
                    "path": "<XRController>{LeftHand}/Primary2DAxis/x",
                    "interactions": "",
                    "processors": "Clamp(min=-1),Invert",
                    "groups": "Generic XR Controller",
                    "action": "Rotate Anchor",
                    "isComposite": false,
                    "isPartOfComposite": true
                },
                {
                    "name": "right",
                    "id": "0064f189-a00e-4cf8-9f53-be76a30cb97f",
                    "path": "<XRController>{LeftHand}/Primary2DAxis/x",
                    "interactions": "",
                    "processors": "Clamp(max=1)",
                    "groups": "Generic XR Controller",
                    "action": "Rotate Anchor",
                    "isComposite": false,
                    "isPartOfComposite": true
                },
                {
                    "name": "2D Vector",
                    "id": "44d142b3-f6ac-4d08-8bd1-fac53cf9bb9e",
                    "path": "2DVector(mode=2)",
                    "interactions": "",
                    "processors": "StickDeadzone",
                    "groups": "",
                    "action": "Translate Anchor",
                    "isComposite": true,
                    "isPartOfComposite": false
                },
                {
                    "name": "up",
                    "id": "b1dbcb6a-408c-413c-b2d1-7a10fe418324",
                    "path": "<XRController>{LeftHand}/Primary2DAxis/y",
                    "interactions": "",
                    "processors": "Clamp(max=1)",
                    "groups": "Generic XR Controller",
                    "action": "Translate Anchor",
                    "isComposite": false,
                    "isPartOfComposite": true
                },
                {
                    "name": "down",
                    "id": "0e38a62a-8bee-4853-b87a-1af460e3ec33",
                    "path": "<XRController>{LeftHand}/Primary2DAxis/y",
                    "interactions": "",
                    "processors": "Clamp(min=-1),Invert",
                    "groups": "Generic XR Controller",
                    "action": "Translate Anchor",
                    "isComposite": false,
                    "isPartOfComposite": true
                },
                {
                    "name": "left",
                    "id": "2f25805f-44a3-4716-983c-532473bcc03c",
                    "path": "",
                    "interactions": "",
                    "processors": "",
                    "groups": "Generic XR Controller",
                    "action": "Translate Anchor",
                    "isComposite": false,
                    "isPartOfComposite": true
                },
                {
                    "name": "right",
                    "id": "d97ccaa1-79ae-4ca7-b7dd-be5ce92c94a6",
                    "path": "",
                    "interactions": "",
                    "processors": "",
                    "groups": "Generic XR Controller",
                    "action": "Translate Anchor",
                    "isComposite": false,
                    "isPartOfComposite": true
                }
            ]
        },
        {
            "name": "XRI RightHand",
            "id": "7960f8ef-2bf3-4281-aecc-4c03809d6c8c",
            "actions": [
                {
                    "name": "Position",
                    "type": "Value",
                    "id": "c4990d70-7b8a-4ce1-b03c-da86716b8352",
                    "expectedControlType": "Vector3",
                    "processors": "",
                    "interactions": "",
                    "initialStateCheck": true
                },
                {
                    "name": "Rotation",
                    "type": "Value",
                    "id": "ee6bf5bf-bb0a-4a50-8327-cb654b19e298",
                    "expectedControlType": "Quaternion",
                    "processors": "",
                    "interactions": "",
                    "initialStateCheck": true
                },
                {
                    "name": "Select",
                    "type": "Button",
                    "id": "ac96c10b-c955-4a46-8e67-bf16bc069b53",
                    "expectedControlType": "Button",
                    "processors": "",
                    "interactions": "",
                    "initialStateCheck": false
                },
                {
                    "name": "Activate",
                    "type": "Button",
                    "id": "41976d89-60de-4deb-bff9-16b4af96b290",
                    "expectedControlType": "Button",
                    "processors": "",
                    "interactions": "",
                    "initialStateCheck": false
                },
                {
                    "name": "UI Press",
                    "type": "Button",
                    "id": "65174b45-c2ee-4f90-93bb-fb4084eaaab3",
                    "expectedControlType": "Button",
                    "processors": "",
                    "interactions": "",
                    "initialStateCheck": false
                },
                {
                    "name": "Haptic Device",
                    "type": "PassThrough",
                    "id": "57b2a1b4-3290-46d6-ac07-4854ee8f91b1",
                    "expectedControlType": "",
                    "processors": "",
                    "interactions": "",
                    "initialStateCheck": false
                },
                {
                    "name": "Teleport Select",
                    "type": "Button",
                    "id": "02e43582-8973-4940-af06-dff6158e3df2",
                    "expectedControlType": "Button",
                    "processors": "",
                    "interactions": "",
                    "initialStateCheck": false
                },
                {
                    "name": "Teleport Mode Activate",
                    "type": "Button",
                    "id": "a6c7231d-c55d-4dd4-9e87-877bb5522ef5",
                    "expectedControlType": "Button",
                    "processors": "",
                    "interactions": "",
                    "initialStateCheck": false
                },
                {
                    "name": "Teleport Mode Cancel",
                    "type": "Button",
                    "id": "d587b60c-39a0-4365-8075-477ce484ba0f",
                    "expectedControlType": "Button",
                    "processors": "",
                    "interactions": "",
                    "initialStateCheck": false
                },
                {
                    "name": "ChangeEndoscopeLengthWidth",
                    "type": "Value",
                    "id": "9fb2eb2b-2fb6-4328-8167-10a1bf11b424",
                    "expectedControlType": "Vector2",
                    "processors": "",
                    "interactions": "",
                    "initialStateCheck": true
                },
                {
                    "name": "Move",
                    "type": "Value",
                    "id": "00a4dc9f-1ee6-4349-b0e9-72d5dccaadd6",
                    "expectedControlType": "Vector2",
                    "processors": "",
                    "interactions": "",
                    "initialStateCheck": true
                },
                {
                    "name": "Rotate Anchor",
                    "type": "Value",
                    "id": "9b5d8312-f609-4895-b70f-81a722b2ae11",
                    "expectedControlType": "Vector2",
                    "processors": "",
                    "interactions": "",
                    "initialStateCheck": true
                },
                {
                    "name": "Translate Anchor",
                    "type": "Value",
                    "id": "6f7cf253-7062-443b-b10f-2be48a33f027",
                    "expectedControlType": "Vector2",
                    "processors": "",
                    "interactions": "",
                    "initialStateCheck": true
                }
            ],
            "bindings": [
                {
                    "name": "",
                    "id": "fa59aed1-ae0b-4074-a58c-294b85f46228",
                    "path": "<XRController>{RightHand}/triggerPressed",
                    "interactions": "",
                    "processors": "",
                    "groups": "Generic XR Controller",
                    "action": "Activate",
                    "isComposite": false,
                    "isPartOfComposite": false
                },
                {
                    "name": "",
                    "id": "8d2a5710-51f9-4e4b-a592-021821e5caa7",
                    "path": "<XRController>{RightHand}/deviceRotation",
                    "interactions": "",
                    "processors": "",
                    "groups": "Generic XR Controller",
                    "action": "Rotation",
                    "isComposite": false,
                    "isPartOfComposite": false
                },
                {
                    "name": "",
                    "id": "62690862-4688-4010-975b-b3d9c6062157",
                    "path": "<XRController>{RightHand}/Primary2DAxis",
                    "interactions": "Sector(directions=1)",
                    "processors": "",
                    "groups": "Generic XR Controller",
                    "action": "Teleport Mode Activate",
                    "isComposite": false,
                    "isPartOfComposite": false
                },
                {
                    "name": "",
                    "id": "90efd65e-3290-4798-af15-21ab4d7848b5",
                    "path": "<XRController>{RightHand}/primaryButton",
                    "interactions": "",
                    "processors": "",
                    "groups": "Generic XR Controller",
                    "action": "Teleport Mode Activate",
                    "isComposite": false,
                    "isPartOfComposite": false
                },
                {
                    "name": "",
                    "id": "de466e6e-12bf-46a1-b0fd-ffbc343f3399",
                    "path": "<XRController>{RightHand}/gripPressed",
                    "interactions": "",
                    "processors": "",
                    "groups": "Generic XR Controller",
                    "action": "Teleport Mode Cancel",
                    "isComposite": false,
                    "isPartOfComposite": false
                },
                {
                    "name": "",
                    "id": "919c4a6c-22ed-4083-8e14-f30e91ff59fe",
                    "path": "<XRController>{RightHand}/Primary2DAxis",
                    "interactions": "Sector(directions=-1,sweepBehavior=3)",
                    "processors": "",
                    "groups": "Generic XR Controller",
                    "action": "Teleport Select",
                    "isComposite": false,
                    "isPartOfComposite": false
                },
                {
                    "name": "",
                    "id": "f7e6d19f-8306-47c9-8ca9-d3b6137565dc",
                    "path": "<XRController>{RightHand}/primaryButton",
                    "interactions": "",
                    "processors": "",
                    "groups": "Generic XR Controller",
                    "action": "Teleport Select",
                    "isComposite": false,
                    "isPartOfComposite": false
                },
                {
                    "name": "",
                    "id": "274078b0-62e5-4730-bcc2-6896b9ad9f0c",
                    "path": "<XRController>{RightHand}/devicePosition",
                    "interactions": "",
                    "processors": "",
                    "groups": "Generic XR Controller",
                    "action": "Position",
                    "isComposite": false,
                    "isPartOfComposite": false
                },
                {
                    "name": "",
                    "id": "1ce80054-410d-4112-a332-50faa7fb4f23",
                    "path": "<XRController>{RightHand}/gripPressed",
                    "interactions": "",
                    "processors": "",
                    "groups": "Generic XR Controller",
                    "action": "Select",
                    "isComposite": false,
                    "isPartOfComposite": false
                },
                {
                    "name": "",
                    "id": "92bb5b8f-bf48-4dab-af05-50a865773895",
                    "path": "<XRController>{RightHand}/triggerPressed",
                    "interactions": "",
                    "processors": "",
                    "groups": "Generic XR Controller",
                    "action": "UI Press",
                    "isComposite": false,
                    "isPartOfComposite": false
                },
                {
                    "name": "",
                    "id": "70f78baa-0f00-4d32-a2b6-ea9e2090ecc2",
                    "path": "<XRController>{RightHand}/Primary2DAxis",
                    "interactions": "",
                    "processors": "InvertVector2(invertY=false)",
                    "groups": "Generic XR Controller",
                    "action": "ChangeEndoscopeLengthWidth",
                    "isComposite": false,
                    "isPartOfComposite": false
                },
                {
                    "name": "",
                    "id": "6011e1e6-b2dd-4cb1-8da5-29b03868f2c5",
                    "path": "<XRController>{RightHand}/*",
                    "interactions": "",
                    "processors": "",
                    "groups": "Generic XR Controller",
                    "action": "Haptic Device",
                    "isComposite": false,
                    "isPartOfComposite": false
                },
                {
                    "name": "2D Vector",
                    "id": "61502e80-1b21-4116-890c-c0bc31c9dffd",
                    "path": "2DVector(mode=2)",
                    "interactions": "",
                    "processors": "StickDeadzone",
                    "groups": "",
                    "action": "Rotate Anchor",
                    "isComposite": true,
                    "isPartOfComposite": false
                },
                {
                    "name": "up",
                    "id": "2b466c01-134f-40f2-b376-f7e9684e423b",
                    "path": "",
                    "interactions": "",
                    "processors": "",
                    "groups": "Generic XR Controller",
                    "action": "Rotate Anchor",
                    "isComposite": false,
                    "isPartOfComposite": true
                },
                {
                    "name": "down",
                    "id": "79757cb3-5b81-4a3d-bc3c-d2582f85d5db",
                    "path": "",
                    "interactions": "",
                    "processors": "",
                    "groups": "Generic XR Controller",
                    "action": "Rotate Anchor",
                    "isComposite": false,
                    "isPartOfComposite": true
                },
                {
                    "name": "left",
                    "id": "76425f70-54b8-4f8e-ad52-94debc75962c",
                    "path": "<XRController>{RightHand}/Primary2DAxis/x",
                    "interactions": "",
                    "processors": "Clamp(min=-1),Invert",
                    "groups": "Generic XR Controller",
                    "action": "Rotate Anchor",
                    "isComposite": false,
                    "isPartOfComposite": true
                },
                {
                    "name": "right",
                    "id": "8df952de-cf29-4b5e-9a90-a6b4eee7f52c",
                    "path": "<XRController>{RightHand}/Primary2DAxis/x",
                    "interactions": "",
                    "processors": "Clamp(max=1)",
                    "groups": "Generic XR Controller",
                    "action": "Rotate Anchor",
                    "isComposite": false,
                    "isPartOfComposite": true
                },
                {
                    "name": "2D Vector",
                    "id": "a4b1434f-f204-49c4-bcea-c25e321e93eb",
                    "path": "2DVector(mode=2)",
                    "interactions": "",
                    "processors": "StickDeadzone",
                    "groups": "",
                    "action": "Translate Anchor",
                    "isComposite": true,
                    "isPartOfComposite": false
                },
                {
                    "name": "up",
                    "id": "4ced8328-f738-4bbd-937a-c09019acd234",
                    "path": "<XRController>{RightHand}/Primary2DAxis/y",
                    "interactions": "",
                    "processors": "Clamp(max=1)",
                    "groups": "Generic XR Controller",
                    "action": "Translate Anchor",
                    "isComposite": false,
                    "isPartOfComposite": true
                },
                {
                    "name": "down",
                    "id": "f7e89e7c-f5a9-4f42-914f-945815a49033",
                    "path": "<XRController>{RightHand}/Primary2DAxis/y",
                    "interactions": "",
                    "processors": "Clamp(min=-1),Invert",
                    "groups": "Generic XR Controller",
                    "action": "Translate Anchor",
                    "isComposite": false,
                    "isPartOfComposite": true
                },
                {
                    "name": "left",
                    "id": "df3b3e57-34c6-4200-b00e-6617123a9680",
                    "path": "",
                    "interactions": "",
                    "processors": "",
                    "groups": "Generic XR Controller",
                    "action": "Translate Anchor",
                    "isComposite": false,
                    "isPartOfComposite": true
                },
                {
                    "name": "right",
                    "id": "54ddc99c-3e9a-4c3a-9fdd-f5fb15952af4",
                    "path": "",
                    "interactions": "",
                    "processors": "",
                    "groups": "Generic XR Controller",
                    "action": "Translate Anchor",
                    "isComposite": false,
                    "isPartOfComposite": true
                }
            ]
        }
    ],
    "controlSchemes": [
        {
            "name": "Generic XR Controller",
            "bindingGroup": "Generic XR Controller",
            "devices": [
                {
                    "devicePath": "<XRController>{LeftHand}",
                    "isOptional": true,
                    "isOR": false
                },
                {
                    "devicePath": "<XRController>{RightHand}",
                    "isOptional": true,
                    "isOR": false
                },
                {
                    "devicePath": "<XRController>",
                    "isOptional": true,
                    "isOR": false
                },
                {
                    "devicePath": "<WMRHMD>",
                    "isOptional": true,
                    "isOR": false
                }
            ]
        },
        {
            "name": "Continuous Move",
            "bindingGroup": "Continuous Move",
            "devices": [
                {
                    "devicePath": "<XRController>{LeftHand}",
                    "isOptional": false,
                    "isOR": false
                },
                {
                    "devicePath": "<XRController>{RightHand}",
                    "isOptional": false,
                    "isOR": false
                }
            ]
        },
        {
            "name": "Noncontinuous Move",
            "bindingGroup": "Noncontinuous Move",
            "devices": [
                {
                    "devicePath": "<XRController>{LeftHand}",
                    "isOptional": false,
                    "isOR": false
                },
                {
                    "devicePath": "<XRController>{RightHand}",
                    "isOptional": false,
                    "isOR": false
                }
            ]
        }
    ]
}